EESchema Schematic File Version 4
EELAYER 30 0
EELAYER END
$Descr A3 16535 11693
encoding utf-8
Sheet 1 1
Title "Tayloe QSD shield"
Date "2020-05-30"
Rev "A"
Comp "DL1YE"
Comment1 ""
Comment2 ""
Comment3 ""
Comment4 ""
$EndDescr
$Comp
L tayloe-rescue:SN74CBT3253D-knightshrub U4
U 1 1 5ED14EAE
P 3000 3350
F 0 "U4" H 3000 3765 50  0000 C CNN
F 1 "SN74CBT3253D" H 3000 3674 50  0000 C CNN
F 2 "Package_SO:SOIC-16_3.9x9.9mm_P1.27mm" H 3200 3700 50  0001 C CNN
F 3 "https://www.ti.com/lit/ds/symlink/sn74cbt3253.pdf" H 3200 3700 50  0001 C CNN
	1    3000 3350
	1    0    0    -1  
$EndComp
$Comp
L tayloe-rescue:LMH6642D08A-knightshrub U1
U 1 1 5ED153AD
P 1800 3200
F 0 "U1" H 1850 3565 50  0000 C CNN
F 1 "LMH6642D08A" H 1850 3474 50  0000 C CNN
F 2 "Package_SO:SOIC-8_3.9x4.9mm_P1.27mm" H 1650 3900 50  0001 C CNN
F 3 "https://www.ti.com/lit/ds/symlink/lmh6642.pdf" H 1650 3900 50  0001 C CNN
	1    1800 3200
	1    0    0    -1  
$EndComp
$Comp
L tayloe-rescue:SN74CBT3253D-knightshrub U4
U 2 1 5ED16C22
P 14400 1150
F 0 "U4" H 14400 1565 50  0000 C CNN
F 1 "SN74CBT3253D" H 14400 1474 50  0000 C CNN
F 2 "Package_SO:SOIC-16_3.9x9.9mm_P1.27mm" H 14600 1500 50  0001 C CNN
F 3 "https://www.ti.com/lit/ds/symlink/sn74cbt3253.pdf" H 14600 1500 50  0001 C CNN
	2    14400 1150
	-1   0    0    -1  
$EndComp
$Comp
L tayloe-rescue:LMH6642D08A-knightshrub U1
U 2 1 5ED17BFD
P 800 10400
F 0 "U1" H 950 10400 50  0000 L CNN
F 1 "LMH6642D08A" H 950 10300 50  0000 L CNN
F 2 "Package_SO:SOIC-8_3.9x4.9mm_P1.27mm" H 650 11100 50  0001 C CNN
F 3 "https://www.ti.com/lit/ds/symlink/lmh6642.pdf" H 650 11100 50  0001 C CNN
	2    800  10400
	1    0    0    -1  
$EndComp
$Comp
L tayloe-rescue:OPA1652-knightshrub U2
U 1 1 5ED18355
P 5000 2200
F 0 "U2" H 5050 2565 50  0000 C CNN
F 1 "OPA1652" H 5050 2474 50  0000 C CNN
F 2 "Package_SO:SOIC-8_3.9x4.9mm_P1.27mm" H 5250 2500 50  0001 C CNN
F 3 "https://www.ti.com/lit/ds/symlink/opa1652.pdf" H 5250 2500 50  0001 C CNN
	1    5000 2200
	1    0    0    -1  
$EndComp
$Comp
L Device:R R10
U 1 1 5ED196E4
P 5200 2550
F 0 "R10" V 5407 2550 50  0000 C CNN
F 1 "10k" V 5316 2550 50  0000 C CNN
F 2 "Resistor_SMD:R_0603_1608Metric_Pad1.05x0.95mm_HandSolder" V 5130 2550 50  0001 C CNN
F 3 "~" H 5200 2550 50  0001 C CNN
	1    5200 2550
	0    -1   -1   0   
$EndComp
$Comp
L Device:C_Small C10
U 1 1 5ED1A9E8
P 4150 2500
F 0 "C10" H 4058 2454 50  0000 R CNN
F 1 "220n" H 4058 2545 50  0000 R CNN
F 2 "Capacitor_THT:C_Disc_D3.0mm_W1.6mm_P2.50mm" H 4150 2500 50  0001 C CNN
F 3 "~" H 4150 2500 50  0001 C CNN
	1    4150 2500
	1    0    0    1   
$EndComp
$Comp
L power:GND #PWR025
U 1 1 5ED1BE5B
P 4150 2650
F 0 "#PWR025" H 4150 2400 50  0001 C CNN
F 1 "GND" H 4155 2477 50  0000 C CNN
F 2 "" H 4150 2650 50  0001 C CNN
F 3 "" H 4150 2650 50  0001 C CNN
	1    4150 2650
	1    0    0    -1  
$EndComp
$Comp
L power:GND #PWR028
U 1 1 5ED1C21D
P 4350 2650
F 0 "#PWR028" H 4350 2400 50  0001 C CNN
F 1 "GND" H 4355 2477 50  0000 C CNN
F 2 "" H 4350 2650 50  0001 C CNN
F 3 "" H 4350 2650 50  0001 C CNN
	1    4350 2650
	1    0    0    -1  
$EndComp
Wire Wire Line
	4350 2650 4350 2600
Wire Wire Line
	4150 2650 4150 2600
Wire Wire Line
	4150 2400 4150 2100
Wire Wire Line
	4750 2300 4700 2300
Wire Wire Line
	4350 2300 4350 2400
Wire Wire Line
	4700 2300 4700 2550
Wire Wire Line
	4700 2550 5050 2550
Connection ~ 4700 2300
Wire Wire Line
	4150 2100 4750 2100
Wire Wire Line
	4350 2300 4700 2300
Wire Wire Line
	5350 2550 5450 2550
Wire Wire Line
	5450 2550 5450 2200
Wire Wire Line
	5450 2200 5350 2200
Text Label 6150 3300 0    50   ~ 0
RXI
Connection ~ 5450 2200
$Comp
L tayloe-rescue:OPA1652-knightshrub U2
U 2 1 5ED24C4D
P 5000 3400
F 0 "U2" H 5050 3765 50  0000 C CNN
F 1 "OPA1652" H 5050 3674 50  0000 C CNN
F 2 "Package_SO:SOIC-8_3.9x4.9mm_P1.27mm" H 5250 3700 50  0001 C CNN
F 3 "https://www.ti.com/lit/ds/symlink/opa1652.pdf" H 5250 3700 50  0001 C CNN
	2    5000 3400
	1    0    0    -1  
$EndComp
$Comp
L Device:R R11
U 1 1 5ED24C53
P 5200 3750
F 0 "R11" V 5407 3750 50  0000 C CNN
F 1 "10k" V 5316 3750 50  0000 C CNN
F 2 "Resistor_SMD:R_0603_1608Metric_Pad1.05x0.95mm_HandSolder" V 5130 3750 50  0001 C CNN
F 3 "~" H 5200 3750 50  0001 C CNN
	1    5200 3750
	0    -1   -1   0   
$EndComp
$Comp
L Device:C_Small C13
U 1 1 5ED24C59
P 4350 3700
F 0 "C13" H 4442 3746 50  0000 L CNN
F 1 "220n" H 4442 3655 50  0000 L CNN
F 2 "Capacitor_THT:C_Disc_D3.0mm_W1.6mm_P2.50mm" H 4350 3700 50  0001 C CNN
F 3 "~" H 4350 3700 50  0001 C CNN
	1    4350 3700
	1    0    0    -1  
$EndComp
$Comp
L Device:C_Small C11
U 1 1 5ED24C5F
P 4150 3700
F 0 "C11" H 4058 3654 50  0000 R CNN
F 1 "220n" H 4058 3745 50  0000 R CNN
F 2 "Capacitor_THT:C_Disc_D3.0mm_W1.6mm_P2.50mm" H 4150 3700 50  0001 C CNN
F 3 "~" H 4150 3700 50  0001 C CNN
	1    4150 3700
	1    0    0    1   
$EndComp
$Comp
L power:GND #PWR026
U 1 1 5ED24C65
P 4150 3850
F 0 "#PWR026" H 4150 3600 50  0001 C CNN
F 1 "GND" H 4155 3677 50  0000 C CNN
F 2 "" H 4150 3850 50  0001 C CNN
F 3 "" H 4150 3850 50  0001 C CNN
	1    4150 3850
	1    0    0    -1  
$EndComp
$Comp
L power:GND #PWR029
U 1 1 5ED24C6B
P 4350 3850
F 0 "#PWR029" H 4350 3600 50  0001 C CNN
F 1 "GND" H 4355 3677 50  0000 C CNN
F 2 "" H 4350 3850 50  0001 C CNN
F 3 "" H 4350 3850 50  0001 C CNN
	1    4350 3850
	1    0    0    -1  
$EndComp
Wire Wire Line
	4350 3850 4350 3800
Wire Wire Line
	4150 3850 4150 3800
Wire Wire Line
	4150 3600 4150 3300
Wire Wire Line
	4750 3500 4700 3500
Wire Wire Line
	4350 3500 4350 3600
Wire Wire Line
	4700 3500 4700 3750
Wire Wire Line
	4700 3750 5050 3750
Connection ~ 4700 3500
Wire Wire Line
	4150 3300 4750 3300
Wire Wire Line
	4350 3500 4700 3500
Wire Wire Line
	5350 3750 5450 3750
Wire Wire Line
	5450 3750 5450 3400
Wire Wire Line
	5450 3400 5350 3400
Text Label 6150 3400 0    50   ~ 0
RXQ
$Comp
L tayloe-rescue:OPA1652-knightshrub U2
U 3 1 5ED250D3
P 2200 10400
F 0 "U2" H 2300 10400 50  0000 L CNN
F 1 "OPA1652" H 2300 10300 50  0000 L CNN
F 2 "Package_SO:SOIC-8_3.9x4.9mm_P1.27mm" H 2450 10700 50  0001 C CNN
F 3 "https://www.ti.com/lit/ds/symlink/opa1652.pdf" H 2450 10700 50  0001 C CNN
	3    2200 10400
	1    0    0    -1  
$EndComp
Text Label 3750 3200 2    50   ~ 0
QSD_RXI
Text Label 3750 3300 2    50   ~ 0
QSD_RXQ
Text Label 3750 3400 2    50   ~ 0
~QSD_RXI
Text Label 3750 3500 2    50   ~ 0
~QSD_RXQ
Wire Wire Line
	3350 3200 3750 3200
Text Label 2400 3500 0    50   ~ 0
~RXEN
Wire Wire Line
	2400 3500 2650 3500
$Comp
L Device:R R7
U 1 1 5ED34A8D
P 2400 3200
F 0 "R7" V 2607 3200 50  0000 C CNN
F 1 "50" V 2516 3200 50  0000 C CNN
F 2 "Resistor_SMD:R_0603_1608Metric_Pad1.05x0.95mm_HandSolder" V 2330 3200 50  0001 C CNN
F 3 "~" H 2400 3200 50  0001 C CNN
	1    2400 3200
	0    -1   -1   0   
$EndComp
$Comp
L Device:R R6
U 1 1 5ED3628C
P 1950 3550
F 0 "R6" V 2157 3550 50  0000 C CNN
F 1 "2k7" V 2066 3550 50  0000 C CNN
F 2 "Resistor_SMD:R_0603_1608Metric_Pad1.05x0.95mm_HandSolder" V 1880 3550 50  0001 C CNN
F 3 "~" H 1950 3550 50  0001 C CNN
	1    1950 3550
	0    -1   -1   0   
$EndComp
$Comp
L Device:R R3
U 1 1 5ED36828
P 1300 3300
F 0 "R3" V 1100 3300 50  0000 C CNN
F 1 "50" V 1200 3300 50  0000 C CNN
F 2 "Resistor_SMD:R_0603_1608Metric_Pad1.05x0.95mm_HandSolder" V 1230 3300 50  0001 C CNN
F 3 "~" H 1300 3300 50  0001 C CNN
	1    1300 3300
	0    -1   -1   0   
$EndComp
$Comp
L Device:R R2
U 1 1 5ED37043
P 1000 2600
F 0 "R2" H 1070 2646 50  0000 L CNN
F 1 "10k" H 1070 2555 50  0000 L CNN
F 2 "Resistor_SMD:R_0603_1608Metric_Pad1.05x0.95mm_HandSolder" V 930 2600 50  0001 C CNN
F 3 "~" H 1000 2600 50  0001 C CNN
	1    1000 2600
	1    0    0    -1  
$EndComp
$Comp
L Device:R R1
U 1 1 5ED37328
P 1000 2200
F 0 "R1" H 1070 2246 50  0000 L CNN
F 1 "10k" H 1070 2155 50  0000 L CNN
F 2 "Resistor_SMD:R_0603_1608Metric_Pad1.05x0.95mm_HandSolder" V 930 2200 50  0001 C CNN
F 3 "~" H 1000 2200 50  0001 C CNN
	1    1000 2200
	1    0    0    -1  
$EndComp
$Comp
L Device:C_Small C3
U 1 1 5ED386E7
P 1250 2600
F 0 "C3" H 1342 2646 50  0000 L CNN
F 1 "0u1" H 1342 2555 50  0000 L CNN
F 2 "Capacitor_SMD:C_0603_1608Metric_Pad1.05x0.95mm_HandSolder" H 1250 2600 50  0001 C CNN
F 3 "~" H 1250 2600 50  0001 C CNN
	1    1250 2600
	1    0    0    -1  
$EndComp
$Comp
L power:GND #PWR05
U 1 1 5ED3A378
P 1000 2800
F 0 "#PWR05" H 1000 2550 50  0001 C CNN
F 1 "GND" H 1005 2627 50  0000 C CNN
F 2 "" H 1000 2800 50  0001 C CNN
F 3 "" H 1000 2800 50  0001 C CNN
	1    1000 2800
	1    0    0    -1  
$EndComp
Wire Wire Line
	1000 2800 1000 2750
Wire Wire Line
	1000 2450 1000 2400
$Comp
L power:+3V3 #PWR04
U 1 1 5ED3BCD5
P 1000 2000
F 0 "#PWR04" H 1000 1850 50  0001 C CNN
F 1 "+3V3" H 1015 2173 50  0000 C CNN
F 2 "" H 1000 2000 50  0001 C CNN
F 3 "" H 1000 2000 50  0001 C CNN
	1    1000 2000
	1    0    0    -1  
$EndComp
Wire Wire Line
	1000 2000 1000 2050
Wire Wire Line
	1000 2400 1250 2400
Wire Wire Line
	1250 2400 1250 2500
Connection ~ 1000 2400
Wire Wire Line
	1000 2400 1000 2350
$Comp
L power:GND #PWR09
U 1 1 5ED3DE4B
P 1250 2800
F 0 "#PWR09" H 1250 2550 50  0001 C CNN
F 1 "GND" H 1255 2627 50  0000 C CNN
F 2 "" H 1250 2800 50  0001 C CNN
F 3 "" H 1250 2800 50  0001 C CNN
	1    1250 2800
	1    0    0    -1  
$EndComp
Wire Wire Line
	1250 2700 1250 2800
Wire Wire Line
	1450 3300 1500 3300
Wire Wire Line
	1500 3300 1500 3550
Wire Wire Line
	1500 3550 1800 3550
Connection ~ 1500 3300
Wire Wire Line
	1500 3300 1550 3300
Wire Wire Line
	2100 3550 2200 3550
Wire Wire Line
	2200 3550 2200 3200
Wire Wire Line
	2200 3200 2150 3200
Wire Wire Line
	2200 3200 2250 3200
Connection ~ 2200 3200
Wire Wire Line
	2550 3200 2650 3200
Wire Wire Line
	1250 2400 1500 2400
Wire Wire Line
	1500 3100 1550 3100
Connection ~ 1250 2400
$Comp
L Device:C_Small C1
U 1 1 5ED49A5B
P 1000 3300
F 0 "C1" V 1229 3300 50  0000 C CNN
F 1 "0u1" V 1138 3300 50  0000 C CNN
F 2 "Capacitor_SMD:C_0603_1608Metric_Pad1.05x0.95mm_HandSolder" H 1000 3300 50  0001 C CNN
F 3 "~" H 1000 3300 50  0001 C CNN
	1    1000 3300
	0    -1   -1   0   
$EndComp
$Comp
L power:GND #PWR01
U 1 1 5ED4B741
P 600 3550
F 0 "#PWR01" H 600 3300 50  0001 C CNN
F 1 "GND" H 605 3377 50  0000 C CNN
F 2 "" H 600 3550 50  0001 C CNN
F 3 "" H 600 3550 50  0001 C CNN
	1    600  3550
	1    0    0    -1  
$EndComp
Wire Wire Line
	600  3550 600  3500
Wire Wire Line
	800  3300 900  3300
Wire Wire Line
	1100 3300 1150 3300
Wire Wire Line
	1500 2400 1500 3100
Text Label 13650 1000 0    50   ~ 0
QSD_TXI
Text Label 13650 1100 0    50   ~ 0
QSD_TXQ
Text Label 13650 1200 0    50   ~ 0
~QSD_TXI
Text Label 13650 1300 0    50   ~ 0
~QSD_TXQ
Wire Wire Line
	14050 1000 13650 1000
Wire Wire Line
	13650 1100 14050 1100
Wire Wire Line
	14050 1200 13650 1200
Wire Wire Line
	13650 1300 14050 1300
Text Label 15000 1300 2    50   ~ 0
~TXEN
Wire Wire Line
	15000 1300 14750 1300
$Comp
L tayloe-rescue:SN74CBT3253D-knightshrub U4
U 3 1 5EDCA921
P 3400 5800
F 0 "U4" H 3600 6100 50  0000 C CNN
F 1 "SN74CBT3253D" H 3750 5500 50  0000 C CNN
F 2 "Package_SO:SOIC-16_3.9x9.9mm_P1.27mm" H 3600 6150 50  0001 C CNN
F 3 "https://www.ti.com/lit/ds/symlink/sn74cbt3253.pdf" H 3600 6150 50  0001 C CNN
	3    3400 5800
	1    0    0    -1  
$EndComp
$Comp
L Device:R R26
U 1 1 5EDD1BDD
P 15000 1000
F 0 "R26" V 14793 1000 50  0000 C CNN
F 1 "50" V 14884 1000 50  0000 C CNN
F 2 "Resistor_SMD:R_0603_1608Metric_Pad1.05x0.95mm_HandSolder" V 14930 1000 50  0001 C CNN
F 3 "~" H 15000 1000 50  0001 C CNN
	1    15000 1000
	0    1    1    0   
$EndComp
$Comp
L Device:C_Small C38
U 1 1 5EDD29D0
P 15350 1000
F 0 "C38" V 15121 1000 50  0000 C CNN
F 1 "0u1" V 15212 1000 50  0000 C CNN
F 2 "Capacitor_SMD:C_0603_1608Metric_Pad1.05x0.95mm_HandSolder" H 15350 1000 50  0001 C CNN
F 3 "~" H 15350 1000 50  0001 C CNN
	1    15350 1000
	0    1    1    0   
$EndComp
$Comp
L Connector:Conn_Coaxial J7
U 1 1 5EDD351F
P 15750 1000
F 0 "J7" H 15850 975 50  0000 L CNN
F 1 "TX" H 15850 884 50  0000 L CNN
F 2 "knightshrub-Connectors:SMA-BU-P_EdgeMount" H 15750 1000 50  0001 C CNN
F 3 " ~" H 15750 1000 50  0001 C CNN
	1    15750 1000
	1    0    0    -1  
$EndComp
$Comp
L power:GND #PWR066
U 1 1 5EDD3E66
P 15750 1250
F 0 "#PWR066" H 15750 1000 50  0001 C CNN
F 1 "GND" H 15755 1077 50  0000 C CNN
F 2 "" H 15750 1250 50  0001 C CNN
F 3 "" H 15750 1250 50  0001 C CNN
	1    15750 1250
	1    0    0    -1  
$EndComp
Wire Wire Line
	15750 1250 15750 1200
Wire Wire Line
	15550 1000 15450 1000
Wire Wire Line
	15150 1000 15250 1000
Wire Wire Line
	14850 1000 14750 1000
$Comp
L Connector:Conn_Coaxial J1
U 1 1 5EDDE4DF
P 600 3300
F 0 "J1" H 528 3538 50  0000 C CNN
F 1 "RX" H 528 3447 50  0000 C CNN
F 2 "knightshrub-Connectors:SMA-BU-P_EdgeMount" H 600 3300 50  0001 C CNN
F 3 " ~" H 600 3300 50  0001 C CNN
	1    600  3300
	-1   0    0    -1  
$EndComp
$Comp
L tayloe-rescue:THS5432-knightshrub U6
U 2 1 5EDEE953
P 9900 3700
F 0 "U6" H 10000 4100 50  0000 C CNN
F 1 "THS5432" H 10100 4000 50  0000 C CNN
F 2 "Package_SO:TSSOP-16_4.4x5mm_P0.65mm" H 10100 4100 50  0001 C CNN
F 3 "" H 10100 4100 50  0001 C CNN
	2    9900 3700
	1    0    0    -1  
$EndComp
$Comp
L Device:R R19
U 1 1 5EDEE959
P 10200 4350
F 0 "R19" V 10407 4350 50  0000 C CNN
F 1 "2k" V 10316 4350 50  0000 C CNN
F 2 "Resistor_SMD:R_0603_1608Metric_Pad1.05x0.95mm_HandSolder" V 10130 4350 50  0001 C CNN
F 3 "~" H 10200 4350 50  0001 C CNN
	1    10200 4350
	0    -1   -1   0   
$EndComp
$Comp
L Device:R R18
U 1 1 5EDEE95F
P 10150 3150
F 0 "R18" V 10357 3150 50  0000 C CNN
F 1 "2k" V 10266 3150 50  0000 C CNN
F 2 "Resistor_SMD:R_0603_1608Metric_Pad1.05x0.95mm_HandSolder" V 10080 3150 50  0001 C CNN
F 3 "~" H 10150 3150 50  0001 C CNN
	1    10150 3150
	0    -1   -1   0   
$EndComp
$Comp
L Device:R R16
U 1 1 5EDEE965
P 9150 3600
F 0 "R16" V 9357 3600 50  0000 C CNN
F 1 "2k" V 9266 3600 50  0000 C CNN
F 2 "Resistor_SMD:R_0603_1608Metric_Pad1.05x0.95mm_HandSolder" V 9080 3600 50  0001 C CNN
F 3 "~" H 9150 3600 50  0001 C CNN
	1    9150 3600
	0    -1   -1   0   
$EndComp
$Comp
L Device:R R17
U 1 1 5EDEE96B
P 9350 4550
F 0 "R17" H 9420 4596 50  0000 L CNN
F 1 "2k" H 9420 4505 50  0000 L CNN
F 2 "Resistor_SMD:R_0603_1608Metric_Pad1.05x0.95mm_HandSolder" V 9280 4550 50  0001 C CNN
F 3 "~" H 9350 4550 50  0001 C CNN
	1    9350 4550
	1    0    0    -1  
$EndComp
$Comp
L Device:C_Small C33
U 1 1 5EDEE971
P 9150 4550
F 0 "C33" H 9058 4504 50  0000 R CNN
F 1 "0u1" H 9058 4595 50  0000 R CNN
F 2 "Capacitor_SMD:C_0603_1608Metric_Pad1.05x0.95mm_HandSolder" H 9150 4550 50  0001 C CNN
F 3 "~" H 9150 4550 50  0001 C CNN
	1    9150 4550
	1    0    0    1   
$EndComp
Wire Wire Line
	9400 3700 9150 3700
Wire Wire Line
	9150 3700 9150 4450
Wire Wire Line
	9350 4400 9350 4350
Wire Wire Line
	9350 3800 9400 3800
Wire Wire Line
	9350 4350 10050 4350
Connection ~ 9350 4350
Wire Wire Line
	9350 4350 9350 3800
Wire Wire Line
	10350 4350 10450 4350
Wire Wire Line
	10450 4350 10450 3800
Wire Wire Line
	10450 3800 10350 3800
Wire Wire Line
	10350 3600 10450 3600
Wire Wire Line
	10450 3600 10450 3150
Wire Wire Line
	10450 3150 10300 3150
Wire Wire Line
	10000 3150 9350 3150
Wire Wire Line
	9350 3150 9350 3600
Wire Wire Line
	9350 3600 9400 3600
Wire Wire Line
	9350 3600 9300 3600
Connection ~ 9350 3600
$Comp
L power:GND #PWR051
U 1 1 5EDEE989
P 9350 4750
F 0 "#PWR051" H 9350 4500 50  0001 C CNN
F 1 "GND" H 9355 4577 50  0000 C CNN
F 2 "" H 9350 4750 50  0001 C CNN
F 3 "" H 9350 4750 50  0001 C CNN
	1    9350 4750
	1    0    0    -1  
$EndComp
$Comp
L power:GND #PWR050
U 1 1 5EDEE98F
P 9150 4750
F 0 "#PWR050" H 9150 4500 50  0001 C CNN
F 1 "GND" H 9155 4577 50  0000 C CNN
F 2 "" H 9150 4750 50  0001 C CNN
F 3 "" H 9150 4750 50  0001 C CNN
	1    9150 4750
	1    0    0    -1  
$EndComp
Wire Wire Line
	9150 4750 9150 4650
Wire Wire Line
	9350 4700 9350 4750
$Comp
L power:+3V3 #PWR053
U 1 1 5EDEE99E
P 9800 2550
F 0 "#PWR053" H 9800 2400 50  0001 C CNN
F 1 "+3V3" H 9815 2723 50  0000 C CNN
F 2 "" H 9800 2550 50  0001 C CNN
F 3 "" H 9800 2550 50  0001 C CNN
	1    9800 2550
	1    0    0    -1  
$EndComp
$Comp
L Device:C_Small C34
U 1 1 5EDEE9A4
P 9650 2750
F 0 "C34" H 9558 2704 50  0000 R CNN
F 1 "0u1" H 9558 2795 50  0000 R CNN
F 2 "Capacitor_SMD:C_0603_1608Metric_Pad1.05x0.95mm_HandSolder" H 9650 2750 50  0001 C CNN
F 3 "~" H 9650 2750 50  0001 C CNN
	1    9650 2750
	1    0    0    1   
$EndComp
$Comp
L power:GND #PWR052
U 1 1 5EDEE9AA
P 9650 2900
F 0 "#PWR052" H 9650 2650 50  0001 C CNN
F 1 "GND" H 9655 2727 50  0000 C CNN
F 2 "" H 9650 2900 50  0001 C CNN
F 3 "" H 9650 2900 50  0001 C CNN
	1    9650 2900
	1    0    0    -1  
$EndComp
Wire Wire Line
	9650 2850 9650 2900
Wire Wire Line
	9000 3600 8900 3600
$Comp
L power:GND #PWR054
U 1 1 5EDEE9B8
P 9800 4400
F 0 "#PWR054" H 9800 4150 50  0001 C CNN
F 1 "GND" H 9805 4227 50  0000 C CNN
F 2 "" H 9800 4400 50  0001 C CNN
F 3 "" H 9800 4400 50  0001 C CNN
	1    9800 4400
	1    0    0    -1  
$EndComp
Wire Wire Line
	9800 4400 9800 4150
Wire Wire Line
	9800 2550 9800 2600
Wire Wire Line
	9650 2650 9650 2600
Wire Wire Line
	9650 2600 9800 2600
Connection ~ 9800 2600
Wire Wire Line
	9800 2600 9800 3250
Text Label 10800 3800 2    50   ~ 0
QSD_TXQ
Text Label 10800 3600 2    50   ~ 0
~QSD_TXQ
Wire Wire Line
	10800 3600 10450 3600
Connection ~ 10450 3600
Wire Wire Line
	10450 3800 10800 3800
Connection ~ 10450 3800
$Comp
L tayloe-rescue:WM8731SEDS-knightshrub U5
U 1 1 5EE1EE08
P 6850 3100
F 0 "U5" H 6850 3665 50  0000 C CNN
F 1 "WM8731SEDS" H 6850 3574 50  0000 C CNN
F 2 "Package_SO:SSOP-28_5.3x10.2mm_P0.65mm" H 7200 3800 50  0001 C CNN
F 3 "" H 7200 3800 50  0001 C CNN
	1    6850 3100
	1    0    0    -1  
$EndComp
$Comp
L tayloe-rescue:WM8731SEDS-knightshrub U5
U 2 1 5EE1F9DF
P 6750 6700
F 0 "U5" H 6750 7315 50  0000 C CNN
F 1 "WM8731SEDS" H 6750 7224 50  0000 C CNN
F 2 "Package_SO:SSOP-28_5.3x10.2mm_P0.65mm" H 7100 7400 50  0001 C CNN
F 3 "" H 7100 7400 50  0001 C CNN
	2    6750 6700
	1    0    0    -1  
$EndComp
$Comp
L tayloe-rescue:WM8731SEDS-knightshrub U5
U 3 1 5EE2009C
P 6750 10300
F 0 "U5" H 6750 11065 50  0000 C CNN
F 1 "WM8731SEDS" H 6750 10974 50  0000 C CNN
F 2 "Package_SO:SSOP-28_5.3x10.2mm_P0.65mm" H 7100 11000 50  0001 C CNN
F 3 "" H 7100 11000 50  0001 C CNN
	3    6750 10300
	1    0    0    -1  
$EndComp
Wire Wire Line
	3750 3200 3750 2100
Wire Wire Line
	3750 2100 4150 2100
Connection ~ 4150 2100
Wire Wire Line
	3850 3400 3850 2300
Wire Wire Line
	3850 2300 4350 2300
Wire Wire Line
	3350 3400 3850 3400
Connection ~ 4350 2300
Wire Wire Line
	3350 3300 4150 3300
Connection ~ 4150 3300
Wire Wire Line
	3350 3500 4350 3500
Connection ~ 4350 3500
$Comp
L Connector_Generic:Conn_01x07 J2
U 1 1 5EEA67F9
P 650 6250
F 0 "J2" H 568 6767 50  0000 C CNN
F 1 "Si5351" H 568 6676 50  0000 C CNN
F 2 "Connector_PinHeader_2.54mm:PinHeader_1x07_P2.54mm_Vertical" H 650 6250 50  0001 C CNN
F 3 "~" H 650 6250 50  0001 C CNN
	1    650  6250
	-1   0    0    -1  
$EndComp
$Comp
L power:+3V3 #PWR06
U 1 1 5EEA7743
P 1000 5700
F 0 "#PWR06" H 1000 5550 50  0001 C CNN
F 1 "+3V3" H 1015 5873 50  0000 C CNN
F 2 "" H 1000 5700 50  0001 C CNN
F 3 "" H 1000 5700 50  0001 C CNN
	1    1000 5700
	1    0    0    -1  
$EndComp
$Comp
L power:GND #PWR07
U 1 1 5EEA8DC4
P 1000 6650
F 0 "#PWR07" H 1000 6400 50  0001 C CNN
F 1 "GND" H 1005 6477 50  0000 C CNN
F 2 "" H 1000 6650 50  0001 C CNN
F 3 "" H 1000 6650 50  0001 C CNN
	1    1000 6650
	1    0    0    -1  
$EndComp
Wire Wire Line
	1000 6650 1000 6050
Wire Wire Line
	1000 6050 850  6050
Wire Wire Line
	850  5950 1000 5950
Wire Wire Line
	1000 5950 1000 5700
Text Label 1200 6150 2    50   ~ 0
SDA
Text Label 1200 6250 2    50   ~ 0
SCL
Text Label 1200 6550 2    50   ~ 0
CLK0
$Comp
L Device:R R4
U 1 1 5EEDFEBD
P 1400 5950
F 0 "R4" H 1330 5904 50  0000 R CNN
F 1 "4k7" H 1330 5995 50  0000 R CNN
F 2 "Resistor_SMD:R_0603_1608Metric_Pad1.05x0.95mm_HandSolder" V 1330 5950 50  0001 C CNN
F 3 "~" H 1400 5950 50  0001 C CNN
	1    1400 5950
	1    0    0    1   
$EndComp
$Comp
L Device:R R5
U 1 1 5EEE0250
P 1500 5950
F 0 "R5" H 1570 5996 50  0000 L CNN
F 1 "4k7" H 1570 5905 50  0000 L CNN
F 2 "Resistor_SMD:R_0603_1608Metric_Pad1.05x0.95mm_HandSolder" V 1430 5950 50  0001 C CNN
F 3 "~" H 1500 5950 50  0001 C CNN
	1    1500 5950
	1    0    0    -1  
$EndComp
$Comp
L power:+3V3 #PWR010
U 1 1 5EEFFA3A
P 1400 5700
F 0 "#PWR010" H 1400 5550 50  0001 C CNN
F 1 "+3V3" H 1415 5873 50  0000 C CNN
F 2 "" H 1400 5700 50  0001 C CNN
F 3 "" H 1400 5700 50  0001 C CNN
	1    1400 5700
	1    0    0    -1  
$EndComp
Wire Wire Line
	1400 5700 1400 5750
Wire Wire Line
	1500 5800 1500 5750
Wire Wire Line
	1500 5750 1400 5750
Connection ~ 1400 5750
Wire Wire Line
	1400 5750 1400 5800
Wire Wire Line
	1400 6150 1400 6100
Wire Wire Line
	850  6150 1400 6150
Wire Wire Line
	1500 6100 1500 6250
Wire Wire Line
	1500 6250 850  6250
$Comp
L tayloe-rescue:74AC163-knightshrub U3
U 1 1 5EF692B4
P 2350 6150
F 0 "U3" H 2450 6850 50  0000 C CNN
F 1 "74AC163" H 2550 6750 50  0000 C CNN
F 2 "Package_SO:SOIC-16_3.9x9.9mm_P1.27mm" H 2500 6700 50  0001 C CNN
F 3 "" H 2500 6700 50  0001 C CNN
	1    2350 6150
	1    0    0    -1  
$EndComp
$Comp
L power:GND #PWR016
U 1 1 5EF6AB3A
P 2350 6800
F 0 "#PWR016" H 2350 6550 50  0001 C CNN
F 1 "GND" H 2355 6627 50  0000 C CNN
F 2 "" H 2350 6800 50  0001 C CNN
F 3 "" H 2350 6800 50  0001 C CNN
	1    2350 6800
	1    0    0    -1  
$EndComp
Text Label 2900 5750 2    50   ~ 0
S0
Text Label 2900 5850 2    50   ~ 0
S1
NoConn ~ 2750 5950
NoConn ~ 2750 6050
NoConn ~ 2750 6150
Wire Wire Line
	2350 6750 2350 6800
$Comp
L power:+3V3 #PWR015
U 1 1 5EFB61C1
P 2350 4800
F 0 "#PWR015" H 2350 4650 50  0001 C CNN
F 1 "+3V3" H 2365 4973 50  0000 C CNN
F 2 "" H 2350 4800 50  0001 C CNN
F 3 "" H 2350 4800 50  0001 C CNN
	1    2350 4800
	1    0    0    -1  
$EndComp
Wire Wire Line
	2350 4800 2350 4850
$Comp
L power:+3V3 #PWR012
U 1 1 5EFBE54C
P 1900 5450
F 0 "#PWR012" H 1900 5300 50  0001 C CNN
F 1 "+3V3" H 1915 5623 50  0000 C CNN
F 2 "" H 1900 5450 50  0001 C CNN
F 3 "" H 1900 5450 50  0001 C CNN
	1    1900 5450
	1    0    0    -1  
$EndComp
Wire Wire Line
	1900 5450 1900 5750
Wire Wire Line
	1900 6450 1950 6450
Wire Wire Line
	1950 6350 1900 6350
Connection ~ 1900 6350
Wire Wire Line
	1900 6350 1900 6450
Wire Wire Line
	1950 6250 1900 6250
Connection ~ 1900 6250
Wire Wire Line
	1900 6250 1900 6350
Wire Wire Line
	1950 6150 1900 6150
Connection ~ 1900 6150
Wire Wire Line
	1900 6150 1900 6250
Wire Wire Line
	1950 6050 1900 6050
Connection ~ 1900 6050
Wire Wire Line
	1900 6050 1900 6150
Wire Wire Line
	1950 5950 1900 5950
Connection ~ 1900 5950
Wire Wire Line
	1900 5950 1900 6050
Wire Wire Line
	1950 5850 1900 5850
Connection ~ 1900 5850
Wire Wire Line
	1900 5850 1900 5950
Wire Wire Line
	1950 5750 1900 5750
Connection ~ 1900 5750
Wire Wire Line
	1900 5750 1900 5850
Text Notes 900  5300 0    50   ~ 0
Si5351 high \nfrequency VCO
Text Notes 2700 6750 0    50   ~ 0
Quadrature clock\ngenerator\nFout = Fin/4
Wire Wire Line
	850  6550 1950 6550
Wire Wire Line
	2750 5750 3050 5750
Wire Wire Line
	2750 5850 3050 5850
$Comp
L power:GND #PWR022
U 1 1 5F0B50DE
P 3400 6200
F 0 "#PWR022" H 3400 5950 50  0001 C CNN
F 1 "GND" H 3405 6027 50  0000 C CNN
F 2 "" H 3400 6200 50  0001 C CNN
F 3 "" H 3400 6200 50  0001 C CNN
	1    3400 6200
	1    0    0    -1  
$EndComp
Wire Wire Line
	3400 6200 3400 6150
$Comp
L Device:C_Small C6
U 1 1 5F0D8104
P 2500 5000
F 0 "C6" H 2592 5046 50  0000 L CNN
F 1 "0u1" H 2592 4955 50  0000 L CNN
F 2 "Capacitor_SMD:C_0603_1608Metric_Pad1.05x0.95mm_HandSolder" H 2500 5000 50  0001 C CNN
F 3 "~" H 2500 5000 50  0001 C CNN
	1    2500 5000
	1    0    0    -1  
$EndComp
$Comp
L power:GND #PWR018
U 1 1 5F0D98F4
P 2500 5150
F 0 "#PWR018" H 2500 4900 50  0001 C CNN
F 1 "GND" H 2505 4977 50  0000 C CNN
F 2 "" H 2500 5150 50  0001 C CNN
F 3 "" H 2500 5150 50  0001 C CNN
	1    2500 5150
	1    0    0    -1  
$EndComp
Wire Wire Line
	2500 4900 2500 4850
Wire Wire Line
	2500 4850 2350 4850
Connection ~ 2350 4850
Wire Wire Line
	2350 4850 2350 5550
Wire Wire Line
	2500 5100 2500 5150
$Comp
L power:+3V3 #PWR021
U 1 1 5F0F5C57
P 3400 4700
F 0 "#PWR021" H 3400 4550 50  0001 C CNN
F 1 "+3V3" H 3415 4873 50  0000 C CNN
F 2 "" H 3400 4700 50  0001 C CNN
F 3 "" H 3400 4700 50  0001 C CNN
	1    3400 4700
	1    0    0    -1  
$EndComp
Wire Wire Line
	3400 4700 3400 4750
$Comp
L Device:C_Small C9
U 1 1 5F0F5C5E
P 3550 4900
F 0 "C9" H 3642 4946 50  0000 L CNN
F 1 "0u1" H 3642 4855 50  0000 L CNN
F 2 "Capacitor_SMD:C_0603_1608Metric_Pad1.05x0.95mm_HandSolder" H 3550 4900 50  0001 C CNN
F 3 "~" H 3550 4900 50  0001 C CNN
	1    3550 4900
	1    0    0    -1  
$EndComp
$Comp
L power:GND #PWR023
U 1 1 5F0F5C64
P 3550 5100
F 0 "#PWR023" H 3550 4850 50  0001 C CNN
F 1 "GND" H 3555 4927 50  0000 C CNN
F 2 "" H 3550 5100 50  0001 C CNN
F 3 "" H 3550 5100 50  0001 C CNN
	1    3550 5100
	1    0    0    -1  
$EndComp
Wire Wire Line
	3550 4800 3550 4750
Wire Wire Line
	3550 4750 3400 4750
Connection ~ 3400 4750
Wire Wire Line
	3400 4750 3400 4800
Wire Wire Line
	3550 5000 3550 5100
$Comp
L Device:C_Small C8
U 1 1 5F0FF236
P 3150 4950
F 0 "C8" H 3242 4996 50  0000 L CNN
F 1 "2u2" H 3242 4905 50  0000 L CNN
F 2 "Capacitor_SMD:C_0805_2012Metric_Pad1.15x1.40mm_HandSolder" H 3150 4950 50  0001 C CNN
F 3 "~" H 3150 4950 50  0001 C CNN
	1    3150 4950
	1    0    0    -1  
$EndComp
$Comp
L power:GND #PWR020
U 1 1 5F0FF23C
P 3150 5100
F 0 "#PWR020" H 3150 4850 50  0001 C CNN
F 1 "GND" H 3155 4927 50  0000 C CNN
F 2 "" H 3150 5100 50  0001 C CNN
F 3 "" H 3150 5100 50  0001 C CNN
	1    3150 5100
	1    0    0    -1  
$EndComp
Wire Wire Line
	3150 5050 3150 5100
Wire Wire Line
	3400 4800 3150 4800
Wire Wire Line
	3150 4800 3150 4850
Connection ~ 3400 4800
Wire Wire Line
	3400 4800 3400 5450
$Comp
L power:GND #PWR014
U 1 1 5F1EE099
P 2200 10750
F 0 "#PWR014" H 2200 10500 50  0001 C CNN
F 1 "GND" H 2205 10577 50  0000 C CNN
F 2 "" H 2200 10750 50  0001 C CNN
F 3 "" H 2200 10750 50  0001 C CNN
	1    2200 10750
	1    0    0    -1  
$EndComp
Wire Wire Line
	2200 10750 2200 10700
$Comp
L power:GND #PWR03
U 1 1 5F1F986C
P 800 10750
F 0 "#PWR03" H 800 10500 50  0001 C CNN
F 1 "GND" H 805 10577 50  0000 C CNN
F 2 "" H 800 10750 50  0001 C CNN
F 3 "" H 800 10750 50  0001 C CNN
	1    800  10750
	1    0    0    -1  
$EndComp
Wire Wire Line
	800  10750 800  10700
$Comp
L power:+5V #PWR02
U 1 1 5F205EB6
P 800 9700
F 0 "#PWR02" H 800 9550 50  0001 C CNN
F 1 "+5V" H 815 9873 50  0000 C CNN
F 2 "" H 800 9700 50  0001 C CNN
F 3 "" H 800 9700 50  0001 C CNN
	1    800  9700
	1    0    0    -1  
$EndComp
$Comp
L Device:C_Small C2
U 1 1 5F206B67
P 1050 9900
F 0 "C2" H 1142 9946 50  0000 L CNN
F 1 "0u1" H 1142 9855 50  0000 L CNN
F 2 "Capacitor_SMD:C_0603_1608Metric_Pad1.05x0.95mm_HandSolder" H 1050 9900 50  0001 C CNN
F 3 "~" H 1050 9900 50  0001 C CNN
	1    1050 9900
	1    0    0    -1  
$EndComp
$Comp
L power:GND #PWR08
U 1 1 5F207083
P 1050 10050
F 0 "#PWR08" H 1050 9800 50  0001 C CNN
F 1 "GND" H 1055 9877 50  0000 C CNN
F 2 "" H 1050 10050 50  0001 C CNN
F 3 "" H 1050 10050 50  0001 C CNN
	1    1050 10050
	1    0    0    -1  
$EndComp
Wire Wire Line
	1050 10050 1050 10000
Wire Wire Line
	1050 9800 1050 9750
Wire Wire Line
	1050 9750 800  9750
Wire Wire Line
	800  9750 800  9700
Wire Wire Line
	800  9750 800  10100
Connection ~ 800  9750
$Comp
L power:+5V #PWR013
U 1 1 5F242373
P 2200 9700
F 0 "#PWR013" H 2200 9550 50  0001 C CNN
F 1 "+5V" H 2215 9873 50  0000 C CNN
F 2 "" H 2200 9700 50  0001 C CNN
F 3 "" H 2200 9700 50  0001 C CNN
	1    2200 9700
	1    0    0    -1  
$EndComp
$Comp
L Device:C_Small C5
U 1 1 5F242379
P 2450 9900
F 0 "C5" H 2542 9946 50  0000 L CNN
F 1 "0u1" H 2542 9855 50  0000 L CNN
F 2 "Capacitor_SMD:C_0603_1608Metric_Pad1.05x0.95mm_HandSolder" H 2450 9900 50  0001 C CNN
F 3 "~" H 2450 9900 50  0001 C CNN
	1    2450 9900
	1    0    0    -1  
$EndComp
Wire Wire Line
	2450 10050 2450 10000
Wire Wire Line
	2450 9800 2450 9750
Wire Wire Line
	2450 9750 2200 9750
Wire Wire Line
	2200 9750 2200 9700
Wire Wire Line
	2200 9750 2200 10100
Connection ~ 2200 9750
$Comp
L power:GND #PWR017
U 1 1 5F24DD7F
P 2450 10050
F 0 "#PWR017" H 2450 9800 50  0001 C CNN
F 1 "GND" H 2455 9877 50  0000 C CNN
F 2 "" H 2450 10050 50  0001 C CNN
F 3 "" H 2450 10050 50  0001 C CNN
	1    2450 10050
	1    0    0    -1  
$EndComp
$Comp
L power:GND #PWR062
U 1 1 5F2F046C
P 14550 9700
F 0 "#PWR062" H 14550 9450 50  0001 C CNN
F 1 "GND" H 14555 9527 50  0000 C CNN
F 2 "" H 14550 9700 50  0001 C CNN
F 3 "" H 14550 9700 50  0001 C CNN
	1    14550 9700
	-1   0    0    -1  
$EndComp
$Comp
L power:+3V3 #PWR063
U 1 1 5F33FB7D
P 14850 3350
F 0 "#PWR063" H 14850 3200 50  0001 C CNN
F 1 "+3V3" H 14865 3523 50  0000 C CNN
F 2 "" H 14850 3350 50  0001 C CNN
F 3 "" H 14850 3350 50  0001 C CNN
	1    14850 3350
	-1   0    0    -1  
$EndComp
Wire Wire Line
	14850 3350 14850 3400
$Comp
L power:+5V #PWR064
U 1 1 5F34B551
P 15000 3250
F 0 "#PWR064" H 15000 3100 50  0001 C CNN
F 1 "+5V" H 15015 3423 50  0000 C CNN
F 2 "" H 15000 3250 50  0001 C CNN
F 3 "" H 15000 3250 50  0001 C CNN
	1    15000 3250
	-1   0    0    -1  
$EndComp
Wire Wire Line
	15000 3250 15000 3400
NoConn ~ 14700 3400
NoConn ~ 14550 3400
NoConn ~ 15150 3400
NoConn ~ 15950 3950
NoConn ~ 15950 4050
NoConn ~ 15950 4150
NoConn ~ 15950 4350
NoConn ~ 15950 4450
NoConn ~ 15950 4650
Text Label 13550 6350 0    50   ~ 0
SCL
Text Label 13550 6450 0    50   ~ 0
SDA
Wire Wire Line
	13550 6350 13750 6350
Wire Wire Line
	13750 6450 13550 6450
Text Label 5700 6550 0    50   ~ 0
SDA
Text Label 5700 6650 0    50   ~ 0
SCL
Wire Wire Line
	5700 6650 6200 6650
Wire Wire Line
	6200 6550 5700 6550
NoConn ~ 7300 6950
NoConn ~ 7300 7050
Text Label 7800 6350 2    50   ~ 0
I2S_BCLK
Text Label 7800 6450 2    50   ~ 0
I2S_DACDAT
Text Label 7800 6550 2    50   ~ 0
I2S_LRCLK
Text Label 7800 6650 2    50   ~ 0
I2S_ADCDAT
Wire Wire Line
	7800 6750 7300 6750
Wire Wire Line
	7300 6650 7800 6650
Wire Wire Line
	7800 6550 7300 6550
Wire Wire Line
	7300 6450 7800 6450
Wire Wire Line
	7800 6350 7300 6350
Text Label 5700 7050 0    50   ~ 0
I2S_MCLK
Wire Wire Line
	5700 7050 6200 7050
Text Label 10800 4000 2    50   ~ 0
~TXPDQ
Wire Wire Line
	10250 4000 10800 4000
Wire Wire Line
	5450 2200 5550 2200
Wire Wire Line
	5550 3400 5450 3400
Connection ~ 5450 3400
Wire Wire Line
	5750 3400 6350 3400
Wire Wire Line
	6350 3300 5850 3300
Wire Wire Line
	5850 3300 5850 2200
Wire Wire Line
	5850 2200 5750 2200
$Comp
L Device:C_Small C26
U 1 1 5EDD632B
P 7400 10050
F 0 "C26" H 7492 10096 50  0000 L CNN
F 1 "0u1" H 7492 10005 50  0000 L CNN
F 2 "Capacitor_SMD:C_0603_1608Metric_Pad1.05x0.95mm_HandSolder" H 7400 10050 50  0001 C CNN
F 3 "~" H 7400 10050 50  0001 C CNN
	1    7400 10050
	1    0    0    -1  
$EndComp
$Comp
L Device:C_Small C31
U 1 1 5EDD7110
P 8450 10050
F 0 "C31" H 8542 10096 50  0000 L CNN
F 1 "0u1" H 8542 10005 50  0000 L CNN
F 2 "Capacitor_SMD:C_0603_1608Metric_Pad1.05x0.95mm_HandSolder" H 8450 10050 50  0001 C CNN
F 3 "~" H 8450 10050 50  0001 C CNN
	1    8450 10050
	1    0    0    -1  
$EndComp
$Comp
L Device:C_Small C23
U 1 1 5EDD747B
P 5550 9950
F 0 "C23" H 5642 9996 50  0000 L CNN
F 1 "0u1" H 5642 9905 50  0000 L CNN
F 2 "Capacitor_SMD:C_0603_1608Metric_Pad1.05x0.95mm_HandSolder" H 5550 9950 50  0001 C CNN
F 3 "~" H 5550 9950 50  0001 C CNN
	1    5550 9950
	-1   0    0    -1  
$EndComp
$Comp
L power:GND #PWR040
U 1 1 5EDE54DA
P 7400 10250
F 0 "#PWR040" H 7400 10000 50  0001 C CNN
F 1 "GND" H 7405 10077 50  0000 C CNN
F 2 "" H 7400 10250 50  0001 C CNN
F 3 "" H 7400 10250 50  0001 C CNN
	1    7400 10250
	1    0    0    -1  
$EndComp
Wire Wire Line
	7400 10150 7400 10200
Wire Wire Line
	7250 10200 7400 10200
Connection ~ 7400 10200
Wire Wire Line
	7400 10200 7400 10250
Wire Wire Line
	7400 9950 7400 9900
Wire Wire Line
	7400 9900 7250 9900
Wire Wire Line
	7250 9800 8150 9800
Wire Wire Line
	8450 9800 8450 9950
$Comp
L power:GND #PWR047
U 1 1 5EE1BA54
P 8450 10250
F 0 "#PWR047" H 8450 10000 50  0001 C CNN
F 1 "GND" H 8455 10077 50  0000 C CNN
F 2 "" H 8450 10250 50  0001 C CNN
F 3 "" H 8450 10250 50  0001 C CNN
	1    8450 10250
	1    0    0    -1  
$EndComp
Wire Wire Line
	8450 10250 8450 10150
$Comp
L power:+3V3 #PWR042
U 1 1 5EE2A316
P 7750 9700
F 0 "#PWR042" H 7750 9550 50  0001 C CNN
F 1 "+3V3" H 7765 9873 50  0000 C CNN
F 2 "" H 7750 9700 50  0001 C CNN
F 3 "" H 7750 9700 50  0001 C CNN
	1    7750 9700
	1    0    0    -1  
$EndComp
$Comp
L power:+3V3 #PWR046
U 1 1 5EE2A5F9
P 8450 9700
F 0 "#PWR046" H 8450 9550 50  0001 C CNN
F 1 "+3V3" H 8465 9873 50  0000 C CNN
F 2 "" H 8450 9700 50  0001 C CNN
F 3 "" H 8450 9700 50  0001 C CNN
	1    8450 9700
	1    0    0    -1  
$EndComp
Wire Wire Line
	8450 9700 8450 9800
Connection ~ 8450 9800
Wire Wire Line
	7750 9700 7750 9900
Connection ~ 7400 9900
$Comp
L power:GND #PWR032
U 1 1 5EE54D67
P 5200 10150
F 0 "#PWR032" H 5200 9900 50  0001 C CNN
F 1 "GND" H 5205 9977 50  0000 C CNN
F 2 "" H 5200 10150 50  0001 C CNN
F 3 "" H 5200 10150 50  0001 C CNN
	1    5200 10150
	1    0    0    -1  
$EndComp
Connection ~ 5200 10100
Wire Wire Line
	5200 10100 5200 10050
Wire Wire Line
	5550 9800 5550 9850
$Comp
L power:+3V3 #PWR031
U 1 1 5EED4868
P 5200 9700
F 0 "#PWR031" H 5200 9550 50  0001 C CNN
F 1 "+3V3" H 5215 9873 50  0000 C CNN
F 2 "" H 5200 9700 50  0001 C CNN
F 3 "" H 5200 9700 50  0001 C CNN
	1    5200 9700
	1    0    0    -1  
$EndComp
$Comp
L Device:C_Small C22
U 1 1 5EDD7FBE
P 5500 10650
F 0 "C22" H 5592 10696 50  0000 L CNN
F 1 "0u1" H 5592 10605 50  0000 L CNN
F 2 "Capacitor_SMD:C_0603_1608Metric_Pad1.05x0.95mm_HandSolder" H 5500 10650 50  0001 C CNN
F 3 "~" H 5500 10650 50  0001 C CNN
	1    5500 10650
	-1   0    0    -1  
$EndComp
$Comp
L Device:C_Small C25
U 1 1 5EDD7C10
P 6150 10650
F 0 "C25" H 6242 10696 50  0000 L CNN
F 1 "0u1" H 6242 10605 50  0000 L CNN
F 2 "Capacitor_SMD:C_0603_1608Metric_Pad1.05x0.95mm_HandSolder" H 6150 10650 50  0001 C CNN
F 3 "~" H 6150 10650 50  0001 C CNN
	1    6150 10650
	-1   0    0    -1  
$EndComp
$Comp
L Device:R R13
U 1 1 5EF5BC9D
P 6100 7300
F 0 "R13" H 6170 7346 50  0000 L CNN
F 1 "10k" H 6170 7255 50  0000 L CNN
F 2 "Resistor_SMD:R_0603_1608Metric_Pad1.05x0.95mm_HandSolder" V 6030 7300 50  0001 C CNN
F 3 "~" H 6100 7300 50  0001 C CNN
	1    6100 7300
	1    0    0    -1  
$EndComp
$Comp
L power:GND #PWR038
U 1 1 5EF5DFB8
P 6100 7500
F 0 "#PWR038" H 6100 7250 50  0001 C CNN
F 1 "GND" H 6105 7327 50  0000 C CNN
F 2 "" H 6100 7500 50  0001 C CNN
F 3 "" H 6100 7500 50  0001 C CNN
	1    6100 7500
	1    0    0    -1  
$EndComp
Wire Wire Line
	6200 6450 6100 6450
Wire Wire Line
	6100 6450 6100 7150
Wire Wire Line
	6200 6350 6100 6350
Wire Wire Line
	6100 6350 6100 6450
Connection ~ 6100 6450
Wire Wire Line
	6100 7450 6100 7500
Text Label 13250 6850 0    50   ~ 0
I2S_ADCDAT
Wire Wire Line
	13250 6850 13750 6850
Text Label 13250 6950 0    50   ~ 0
I2S_DACDAT
Wire Wire Line
	13250 6950 13750 6950
Text Label 13250 7750 0    50   ~ 0
I2S_MCLK
Wire Wire Line
	13250 7750 13750 7750
Text Label 7800 6750 2    50   ~ 0
I2S_LRCLK
Text Label 13250 6650 0    50   ~ 0
I2S_LRCLK
Wire Wire Line
	13250 6650 13750 6650
Wire Wire Line
	13750 6750 13250 6750
Text Label 13250 6750 0    50   ~ 0
I2S_BCLK
$Comp
L power:GND #PWR049
U 1 1 5EDA1EDE
P 8900 1550
F 0 "#PWR049" H 8900 1300 50  0001 C CNN
F 1 "GND" H 8905 1377 50  0000 C CNN
F 2 "" H 8900 1550 50  0001 C CNN
F 3 "" H 8900 1550 50  0001 C CNN
	1    8900 1550
	-1   0    0    -1  
$EndComp
$Comp
L power:GND #PWR041
U 1 1 5EE54218
P 7350 4300
F 0 "#PWR041" H 7350 4050 50  0001 C CNN
F 1 "GND" H 7355 4127 50  0000 C CNN
F 2 "" H 7350 4300 50  0001 C CNN
F 3 "" H 7350 4300 50  0001 C CNN
	1    7350 4300
	-1   0    0    -1  
$EndComp
Text Label 8500 3600 0    50   ~ 0
TXQ
Wire Wire Line
	8500 3600 8700 3600
Text Label 6450 4050 2    50   ~ 0
TXI
Wire Wire Line
	6450 4150 6300 4150
Wire Wire Line
	6300 4050 6450 4050
Text Label 6450 4150 2    50   ~ 0
TXQ
$Comp
L power:GND #PWR024
U 1 1 5EEB75C5
P 3400 1450
F 0 "#PWR024" H 3400 1200 50  0001 C CNN
F 1 "GND" H 3405 1277 50  0000 C CNN
F 2 "" H 3400 1450 50  0001 C CNN
F 3 "" H 3400 1450 50  0001 C CNN
	1    3400 1450
	1    0    0    -1  
$EndComp
Wire Wire Line
	6000 2900 6350 2900
$Comp
L Device:R R9
U 1 1 5EFFF0F0
P 4350 900
F 0 "R9" V 4557 900 50  0000 C CNN
F 1 "680" V 4466 900 50  0000 C CNN
F 2 "Resistor_SMD:R_0603_1608Metric_Pad1.05x0.95mm_HandSolder" V 4280 900 50  0001 C CNN
F 3 "~" H 4350 900 50  0001 C CNN
	1    4350 900 
	0    -1   -1   0   
$EndComp
$Comp
L Device:R R8
U 1 1 5EFFF551
P 4150 1400
F 0 "R8" H 4080 1354 50  0000 R CNN
F 1 "47k" H 4080 1445 50  0000 R CNN
F 2 "Resistor_SMD:R_0603_1608Metric_Pad1.05x0.95mm_HandSolder" V 4080 1400 50  0001 C CNN
F 3 "~" H 4150 1400 50  0001 C CNN
	1    4150 1400
	-1   0    0    1   
$EndComp
$Comp
L Device:C_Small C14
U 1 1 5F002191
P 4450 1350
F 0 "C14" H 4542 1396 50  0000 L CNN
F 1 "220p" H 4542 1305 50  0000 L CNN
F 2 "Capacitor_SMD:C_0603_1608Metric_Pad1.05x0.95mm_HandSolder" H 4450 1350 50  0001 C CNN
F 3 "~" H 4450 1350 50  0001 C CNN
	1    4450 1350
	1    0    0    -1  
$EndComp
Wire Wire Line
	3350 1200 4150 1200
Wire Wire Line
	4150 1200 4150 1250
Connection ~ 4150 1200
Wire Wire Line
	4450 1250 4450 1200
$Comp
L power:GND #PWR027
U 1 1 5F05B3AD
P 4150 1600
F 0 "#PWR027" H 4150 1350 50  0001 C CNN
F 1 "GND" H 4155 1427 50  0000 C CNN
F 2 "" H 4150 1600 50  0001 C CNN
F 3 "" H 4150 1600 50  0001 C CNN
	1    4150 1600
	1    0    0    -1  
$EndComp
$Comp
L power:GND #PWR030
U 1 1 5F05B879
P 4450 1600
F 0 "#PWR030" H 4450 1350 50  0001 C CNN
F 1 "GND" H 4455 1427 50  0000 C CNN
F 2 "" H 4450 1600 50  0001 C CNN
F 3 "" H 4450 1600 50  0001 C CNN
	1    4450 1600
	1    0    0    -1  
$EndComp
Wire Wire Line
	4450 1600 4450 1450
Wire Wire Line
	4150 1550 4150 1600
Text Label 4850 900  2    50   ~ 0
MICBIAS
Connection ~ 4450 1200
Wire Wire Line
	4450 1200 4700 1200
Wire Wire Line
	4150 1200 4450 1200
Wire Wire Line
	4200 900  4150 900 
Wire Wire Line
	4150 900  4150 1200
$Comp
L Device:R R12
U 1 1 5F1958AB
P 5100 1200
F 0 "R12" V 4893 1200 50  0000 C CNN
F 1 "R" V 4984 1200 50  0000 C CNN
F 2 "Resistor_SMD:R_0603_1608Metric_Pad1.05x0.95mm_HandSolder" V 5030 1200 50  0001 C CNN
F 3 "~" H 5100 1200 50  0001 C CNN
	1    5100 1200
	0    1    1    0   
$EndComp
Wire Wire Line
	4950 1200 4900 1200
Text Label 5500 1200 2    50   ~ 0
MICIN
$Comp
L Device:CP_Small C28
U 1 1 5F23EA29
P 8150 950
F 0 "C28" V 8375 950 50  0000 C CNN
F 1 "220u" V 8284 950 50  0000 C CNN
F 2 "Capacitor_THT:CP_Radial_D6.3mm_P2.50mm" H 8150 950 50  0001 C CNN
F 3 "~" H 8150 950 50  0001 C CNN
	1    8150 950 
	0    -1   -1   0   
$EndComp
$Comp
L Device:CP_Small C29
U 1 1 5F23F0D1
P 8150 1100
F 0 "C29" V 7900 1100 50  0000 C CNN
F 1 "220u" V 8000 1100 50  0000 C CNN
F 2 "Capacitor_THT:CP_Radial_D6.3mm_P2.50mm" H 8150 1100 50  0001 C CNN
F 3 "~" H 8150 1100 50  0001 C CNN
	1    8150 1100
	0    -1   -1   0   
$EndComp
$Comp
L Device:R R14
U 1 1 5F240BFB
P 8350 1350
F 0 "R14" H 8420 1396 50  0000 L CNN
F 1 "47k" H 8420 1305 50  0000 L CNN
F 2 "Resistor_SMD:R_0603_1608Metric_Pad1.05x0.95mm_HandSolder" V 8280 1350 50  0001 C CNN
F 3 "~" H 8350 1350 50  0001 C CNN
	1    8350 1350
	1    0    0    -1  
$EndComp
$Comp
L Device:R R15
U 1 1 5F241788
P 8650 1350
F 0 "R15" H 8720 1396 50  0000 L CNN
F 1 "47k" H 8720 1305 50  0000 L CNN
F 2 "Resistor_SMD:R_0603_1608Metric_Pad1.05x0.95mm_HandSolder" V 8580 1350 50  0001 C CNN
F 3 "~" H 8650 1350 50  0001 C CNN
	1    8650 1350
	1    0    0    -1  
$EndComp
Wire Wire Line
	8250 1100 8350 1100
Wire Wire Line
	8350 1100 8350 1200
Wire Wire Line
	8250 950  8650 950 
$Comp
L power:GND #PWR048
U 1 1 5F2A46A3
P 8650 1550
F 0 "#PWR048" H 8650 1300 50  0001 C CNN
F 1 "GND" H 8655 1377 50  0000 C CNN
F 2 "" H 8650 1550 50  0001 C CNN
F 3 "" H 8650 1550 50  0001 C CNN
	1    8650 1550
	-1   0    0    -1  
$EndComp
$Comp
L power:GND #PWR045
U 1 1 5F2A4ABB
P 8350 1550
F 0 "#PWR045" H 8350 1300 50  0001 C CNN
F 1 "GND" H 8355 1377 50  0000 C CNN
F 2 "" H 8350 1550 50  0001 C CNN
F 3 "" H 8350 1550 50  0001 C CNN
	1    8350 1550
	-1   0    0    -1  
$EndComp
Wire Wire Line
	8350 1550 8350 1500
Wire Wire Line
	8650 1500 8650 1550
Text Label 7650 950  0    50   ~ 0
LHPHOUT
Text Label 7650 1100 0    50   ~ 0
RHPHOUT
Text Notes 3900 4300 0    50   ~ 0
Sampling capacitors determine bandwidth,\nchoose according to needed bandwidth
Wire Wire Line
	5250 1200 6000 1200
Wire Wire Line
	6000 1200 6000 2900
Wire Wire Line
	6100 900  6100 2800
Wire Wire Line
	6100 2800 6350 2800
Wire Wire Line
	4500 900  6100 900 
Wire Wire Line
	7350 2800 7450 2800
Wire Wire Line
	7550 2900 7350 2900
Text Label 10500 2050 0    50   ~ 0
TXI
Wire Wire Line
	12250 2450 12800 2450
Text Label 12800 2450 2    50   ~ 0
~TXPDI
Connection ~ 12450 2050
Wire Wire Line
	12450 2050 12800 2050
Connection ~ 12450 2250
Wire Wire Line
	12800 2250 12450 2250
Text Label 12800 2050 2    50   ~ 0
~QSD_TXI
Text Label 12800 2250 2    50   ~ 0
QSD_TXI
Wire Wire Line
	11800 1050 11800 1700
Connection ~ 11800 1050
Wire Wire Line
	11650 1050 11800 1050
Wire Wire Line
	11650 1100 11650 1050
Wire Wire Line
	11800 1000 11800 1050
Wire Wire Line
	11800 2850 11800 2600
$Comp
L power:GND #PWR061
U 1 1 5EDB5CA9
P 11800 2850
F 0 "#PWR061" H 11800 2600 50  0001 C CNN
F 1 "GND" H 11805 2677 50  0000 C CNN
F 2 "" H 11800 2850 50  0001 C CNN
F 3 "" H 11800 2850 50  0001 C CNN
	1    11800 2850
	1    0    0    -1  
$EndComp
Wire Wire Line
	11000 2050 10900 2050
Wire Wire Line
	11650 1300 11650 1350
$Comp
L power:GND #PWR059
U 1 1 5EDA822A
P 11650 1350
F 0 "#PWR059" H 11650 1100 50  0001 C CNN
F 1 "GND" H 11655 1177 50  0000 C CNN
F 2 "" H 11650 1350 50  0001 C CNN
F 3 "" H 11650 1350 50  0001 C CNN
	1    11650 1350
	1    0    0    -1  
$EndComp
$Comp
L Device:C_Small C37
U 1 1 5EDA6DCC
P 11650 1200
F 0 "C37" H 11558 1154 50  0000 R CNN
F 1 "2u2" H 11558 1245 50  0000 R CNN
F 2 "Capacitor_SMD:C_0805_2012Metric_Pad1.15x1.40mm_HandSolder" H 11650 1200 50  0001 C CNN
F 3 "~" H 11650 1200 50  0001 C CNN
	1    11650 1200
	1    0    0    1   
$EndComp
$Comp
L power:+3V3 #PWR060
U 1 1 5EDA5FC9
P 11800 1000
F 0 "#PWR060" H 11800 850 50  0001 C CNN
F 1 "+3V3" H 11815 1173 50  0000 C CNN
F 2 "" H 11800 1000 50  0001 C CNN
F 3 "" H 11800 1000 50  0001 C CNN
	1    11800 1000
	1    0    0    -1  
$EndComp
Wire Wire Line
	11350 3150 11350 3200
Wire Wire Line
	11150 3200 11150 3100
$Comp
L power:GND #PWR056
U 1 1 5ED9F6E7
P 11150 3200
F 0 "#PWR056" H 11150 2950 50  0001 C CNN
F 1 "GND" H 11155 3027 50  0000 C CNN
F 2 "" H 11150 3200 50  0001 C CNN
F 3 "" H 11150 3200 50  0001 C CNN
	1    11150 3200
	1    0    0    -1  
$EndComp
$Comp
L power:GND #PWR058
U 1 1 5ED9F0C4
P 11350 3200
F 0 "#PWR058" H 11350 2950 50  0001 C CNN
F 1 "GND" H 11355 3027 50  0000 C CNN
F 2 "" H 11350 3200 50  0001 C CNN
F 3 "" H 11350 3200 50  0001 C CNN
	1    11350 3200
	1    0    0    -1  
$EndComp
Connection ~ 11350 2050
Wire Wire Line
	11350 2050 11300 2050
Wire Wire Line
	11350 2050 11400 2050
Wire Wire Line
	11350 1600 11350 2050
Wire Wire Line
	12000 1600 11350 1600
Wire Wire Line
	12450 1600 12300 1600
Wire Wire Line
	12450 2050 12450 1600
Wire Wire Line
	12350 2050 12450 2050
Wire Wire Line
	12450 2250 12350 2250
Wire Wire Line
	12450 2800 12450 2250
Wire Wire Line
	12350 2800 12450 2800
Wire Wire Line
	11350 2800 11350 2250
Connection ~ 11350 2800
Wire Wire Line
	11350 2800 12050 2800
Wire Wire Line
	11350 2250 11400 2250
Wire Wire Line
	11350 2850 11350 2800
Wire Wire Line
	11150 2150 11150 2900
Wire Wire Line
	11400 2150 11150 2150
$Comp
L Device:C_Small C36
U 1 1 5ED9352F
P 11150 3000
F 0 "C36" H 11058 2954 50  0000 R CNN
F 1 "0u1" H 11058 3045 50  0000 R CNN
F 2 "Capacitor_SMD:C_0603_1608Metric_Pad1.05x0.95mm_HandSolder" H 11150 3000 50  0001 C CNN
F 3 "~" H 11150 3000 50  0001 C CNN
	1    11150 3000
	1    0    0    1   
$EndComp
$Comp
L Device:R R23
U 1 1 5ED92E8D
P 11350 3000
F 0 "R23" H 11420 3046 50  0000 L CNN
F 1 "2k" H 11420 2955 50  0000 L CNN
F 2 "Resistor_SMD:R_0603_1608Metric_Pad1.05x0.95mm_HandSolder" V 11280 3000 50  0001 C CNN
F 3 "~" H 11350 3000 50  0001 C CNN
	1    11350 3000
	1    0    0    -1  
$EndComp
$Comp
L Device:R R21
U 1 1 5ED92377
P 11150 2050
F 0 "R21" V 11357 2050 50  0000 C CNN
F 1 "2k" V 11266 2050 50  0000 C CNN
F 2 "Resistor_SMD:R_0603_1608Metric_Pad1.05x0.95mm_HandSolder" V 11080 2050 50  0001 C CNN
F 3 "~" H 11150 2050 50  0001 C CNN
	1    11150 2050
	0    -1   -1   0   
$EndComp
$Comp
L Device:R R24
U 1 1 5ED9105A
P 12150 1600
F 0 "R24" V 12357 1600 50  0000 C CNN
F 1 "2k" V 12266 1600 50  0000 C CNN
F 2 "Resistor_SMD:R_0603_1608Metric_Pad1.05x0.95mm_HandSolder" V 12080 1600 50  0001 C CNN
F 3 "~" H 12150 1600 50  0001 C CNN
	1    12150 1600
	0    -1   -1   0   
$EndComp
$Comp
L Device:R R25
U 1 1 5ED909DD
P 12200 2800
F 0 "R25" V 12407 2800 50  0000 C CNN
F 1 "2k" V 12316 2800 50  0000 C CNN
F 2 "Resistor_SMD:R_0603_1608Metric_Pad1.05x0.95mm_HandSolder" V 12130 2800 50  0001 C CNN
F 3 "~" H 12200 2800 50  0001 C CNN
	1    12200 2800
	0    -1   -1   0   
$EndComp
$Comp
L tayloe-rescue:THS5432-knightshrub U6
U 1 1 5ED156F4
P 11900 2150
F 0 "U6" H 12000 2550 50  0000 C CNN
F 1 "THS5432" H 12100 2450 50  0000 C CNN
F 2 "Package_SO:TSSOP-16_4.4x5mm_P0.65mm" H 12100 2550 50  0001 C CNN
F 3 "" H 12100 2550 50  0001 C CNN
	1    11900 2150
	1    0    0    -1  
$EndComp
$Comp
L Device:C_Small C12
U 1 1 5ED1A2C8
P 4350 2500
F 0 "C12" H 4442 2546 50  0000 L CNN
F 1 "220n" H 4442 2455 50  0000 L CNN
F 2 "Capacitor_THT:C_Disc_D3.0mm_W1.6mm_P2.50mm" H 4350 2500 50  0001 C CNN
F 3 "~" H 4350 2500 50  0001 C CNN
	1    4350 2500
	1    0    0    -1  
$EndComp
$Comp
L Device:C_Small C20
U 1 1 5F648A07
P 5650 2200
F 0 "C20" V 5421 2200 50  0000 C CNN
F 1 "10u" V 5512 2200 50  0000 C CNN
F 2 "Capacitor_SMD:C_0805_2012Metric_Pad1.15x1.40mm_HandSolder" H 5650 2200 50  0001 C CNN
F 3 "~" H 5650 2200 50  0001 C CNN
	1    5650 2200
	0    1    1    0   
$EndComp
$Comp
L Device:C_Small C21
U 1 1 5F64925D
P 5650 3400
F 0 "C21" V 5421 3400 50  0000 C CNN
F 1 "10u" V 5512 3400 50  0000 C CNN
F 2 "Capacitor_SMD:C_0805_2012Metric_Pad1.15x1.40mm_HandSolder" H 5650 3400 50  0001 C CNN
F 3 "~" H 5650 3400 50  0001 C CNN
	1    5650 3400
	0    1    1    0   
$EndComp
$Comp
L Device:C_Small C35
U 1 1 5F649D16
P 10800 2050
F 0 "C35" V 10571 2050 50  0000 C CNN
F 1 "10u" V 10662 2050 50  0000 C CNN
F 2 "Capacitor_SMD:C_0805_2012Metric_Pad1.15x1.40mm_HandSolder" H 10800 2050 50  0001 C CNN
F 3 "~" H 10800 2050 50  0001 C CNN
	1    10800 2050
	0    1    1    0   
$EndComp
$Comp
L Device:C_Small C32
U 1 1 5F64A53D
P 8800 3600
F 0 "C32" V 8571 3600 50  0000 C CNN
F 1 "10u" V 8662 3600 50  0000 C CNN
F 2 "Capacitor_SMD:C_0805_2012Metric_Pad1.15x1.40mm_HandSolder" H 8800 3600 50  0001 C CNN
F 3 "~" H 8800 3600 50  0001 C CNN
	1    8800 3600
	0    1    1    0   
$EndComp
Wire Wire Line
	7350 3300 8500 3300
Wire Wire Line
	8500 2050 10700 2050
Wire Wire Line
	7350 3400 8500 3400
Wire Wire Line
	8500 3400 8500 3600
Wire Wire Line
	8500 2050 8500 3300
$Comp
L Device:C_Small C15
U 1 1 5F9D3668
P 4900 2650
F 0 "C15" V 5100 2650 50  0000 C CNN
F 1 "10n" V 5000 2650 50  0000 C CNN
F 2 "Capacitor_SMD:C_0603_1608Metric_Pad1.05x0.95mm_HandSolder" H 4900 2650 50  0001 C CNN
F 3 "~" H 4900 2650 50  0001 C CNN
	1    4900 2650
	0    1    1    0   
$EndComp
Wire Wire Line
	5000 2650 5450 2650
Wire Wire Line
	5450 2650 5450 2550
Connection ~ 5450 2550
Wire Wire Line
	4800 2650 4700 2650
Wire Wire Line
	4700 2650 4700 2550
Connection ~ 4700 2550
$Comp
L Device:C_Small C16
U 1 1 5FA1EC1F
P 4900 3850
F 0 "C16" V 5100 3850 50  0000 C CNN
F 1 "10n" V 5000 3850 50  0000 C CNN
F 2 "Capacitor_SMD:C_0603_1608Metric_Pad1.05x0.95mm_HandSolder" H 4900 3850 50  0001 C CNN
F 3 "~" H 4900 3850 50  0001 C CNN
	1    4900 3850
	0    1    1    0   
$EndComp
Wire Wire Line
	4800 3850 4700 3850
Wire Wire Line
	4700 3850 4700 3750
Connection ~ 4700 3750
Wire Wire Line
	5000 3850 5450 3850
Wire Wire Line
	5450 3850 5450 3750
Connection ~ 5450 3750
Text Notes 1300 2300 0    50   ~ 0
Detector bias
Text Notes 14100 1550 0    50   ~ 0
Quadrature upconverter
Text Notes 1500 3800 0    50   ~ 0
RX preamplifier
Text Notes 2500 2750 0    50   ~ 0
Quadrature sampling detector
Text Notes 6450 2350 0    50   ~ 0
Audio CODEC:\n- RX baseband ADC\n- TX baseband DAC\n- Microphone input\n- Headphone Output
Text Notes 3450 650  0    50   ~ 0
Microphone input
Text Notes 8300 750  0    50   ~ 0
Headphone output
Text Notes 9850 1650 0    50   ~ 0
Fully differential amplifiers create\ncomplementary TX baseband I/Q\nsignals and add mid-rail bias
Text Notes 14000 2950 0    50   ~ 0
STM32F401RE Nucleo64 evaluation board
Text Notes 6150 4900 0    50   ~ 0
TX/RX baseband I/O for PC soundcard
Text Notes 6200 6000 0    50   ~ 0
Audio CODEC digital interfaces:\n- I2S uses full-duplex slave mode\n- control data uses I2C
$Comp
L Device:C_Small C27
U 1 1 5FACF29F
P 7750 10050
F 0 "C27" H 7658 10004 50  0000 R CNN
F 1 "10u" H 7658 10095 50  0000 R CNN
F 2 "Capacitor_SMD:C_0805_2012Metric_Pad1.15x1.40mm_HandSolder" H 7750 10050 50  0001 C CNN
F 3 "~" H 7750 10050 50  0001 C CNN
	1    7750 10050
	-1   0    0    1   
$EndComp
$Comp
L power:GND #PWR043
U 1 1 5FAD06FC
P 7750 10250
F 0 "#PWR043" H 7750 10000 50  0001 C CNN
F 1 "GND" H 7755 10077 50  0000 C CNN
F 2 "" H 7750 10250 50  0001 C CNN
F 3 "" H 7750 10250 50  0001 C CNN
	1    7750 10250
	1    0    0    -1  
$EndComp
Wire Wire Line
	7750 10250 7750 10150
Wire Wire Line
	7400 9900 7750 9900
Wire Wire Line
	7750 9900 7750 9950
Connection ~ 7750 9900
$Comp
L Device:C_Small C30
U 1 1 5FB1F706
P 8150 10050
F 0 "C30" H 8058 10004 50  0000 R CNN
F 1 "10u" H 8058 10095 50  0000 R CNN
F 2 "Capacitor_SMD:C_0805_2012Metric_Pad1.15x1.40mm_HandSolder" H 8150 10050 50  0001 C CNN
F 3 "~" H 8150 10050 50  0001 C CNN
	1    8150 10050
	-1   0    0    1   
$EndComp
$Comp
L power:GND #PWR044
U 1 1 5FB1FC09
P 8150 10250
F 0 "#PWR044" H 8150 10000 50  0001 C CNN
F 1 "GND" H 8155 10077 50  0000 C CNN
F 2 "" H 8150 10250 50  0001 C CNN
F 3 "" H 8150 10250 50  0001 C CNN
	1    8150 10250
	1    0    0    -1  
$EndComp
Wire Wire Line
	8150 10250 8150 10150
Wire Wire Line
	8150 9800 8150 9950
Connection ~ 8150 9800
Wire Wire Line
	8150 9800 8450 9800
$Comp
L Device:C_Small C18
U 1 1 5FBDECCF
P 5200 9950
F 0 "C18" H 5292 9996 50  0000 L CNN
F 1 "10u" H 5292 9905 50  0000 L CNN
F 2 "Capacitor_SMD:C_0805_2012Metric_Pad1.15x1.40mm_HandSolder" H 5200 9950 50  0001 C CNN
F 3 "~" H 5200 9950 50  0001 C CNN
	1    5200 9950
	-1   0    0    -1  
$EndComp
Wire Wire Line
	5200 9700 5200 9800
Wire Wire Line
	5200 9800 5550 9800
Connection ~ 5200 9800
Wire Wire Line
	5200 9800 5200 9850
Connection ~ 5550 9800
Wire Wire Line
	5200 10100 5550 10100
Wire Wire Line
	5550 10100 5550 10050
Wire Wire Line
	5200 10100 5200 10150
$Comp
L Device:C_Small C24
U 1 1 5FCD541B
P 5850 10650
F 0 "C24" H 5942 10696 50  0000 L CNN
F 1 "10u" H 5942 10605 50  0000 L CNN
F 2 "Capacitor_SMD:C_0805_2012Metric_Pad1.15x1.40mm_HandSolder" H 5850 10650 50  0001 C CNN
F 3 "~" H 5850 10650 50  0001 C CNN
	1    5850 10650
	-1   0    0    -1  
$EndComp
$Comp
L Device:C_Small C19
U 1 1 5FCD602C
P 5200 10650
F 0 "C19" H 5292 10696 50  0000 L CNN
F 1 "10u" H 5292 10605 50  0000 L CNN
F 2 "Capacitor_SMD:C_0805_2012Metric_Pad1.15x1.40mm_HandSolder" H 5200 10650 50  0001 C CNN
F 3 "~" H 5200 10650 50  0001 C CNN
	1    5200 10650
	-1   0    0    -1  
$EndComp
Wire Wire Line
	6250 10500 6150 10500
Wire Wire Line
	6150 10500 6150 10550
Wire Wire Line
	6150 10500 5850 10500
Wire Wire Line
	5850 10500 5850 10550
Connection ~ 6150 10500
Wire Wire Line
	6250 10400 5500 10400
Wire Wire Line
	5500 10400 5500 10550
Wire Wire Line
	5500 10400 5200 10400
Wire Wire Line
	5200 10400 5200 10550
Connection ~ 5500 10400
Wire Wire Line
	5550 9800 6250 9800
$Comp
L power:GND #PWR033
U 1 1 5FE1198A
P 5200 10850
F 0 "#PWR033" H 5200 10600 50  0001 C CNN
F 1 "GND" H 5205 10677 50  0000 C CNN
F 2 "" H 5200 10850 50  0001 C CNN
F 3 "" H 5200 10850 50  0001 C CNN
	1    5200 10850
	1    0    0    -1  
$EndComp
$Comp
L power:GND #PWR039
U 1 1 5FE4A606
P 6150 10850
F 0 "#PWR039" H 6150 10600 50  0001 C CNN
F 1 "GND" H 6155 10677 50  0000 C CNN
F 2 "" H 6150 10850 50  0001 C CNN
F 3 "" H 6150 10850 50  0001 C CNN
	1    6150 10850
	1    0    0    -1  
$EndComp
$Comp
L power:GND #PWR036
U 1 1 5FE4A97C
P 5850 10850
F 0 "#PWR036" H 5850 10600 50  0001 C CNN
F 1 "GND" H 5855 10677 50  0000 C CNN
F 2 "" H 5850 10850 50  0001 C CNN
F 3 "" H 5850 10850 50  0001 C CNN
	1    5850 10850
	1    0    0    -1  
$EndComp
$Comp
L power:GND #PWR034
U 1 1 5FE4AC75
P 5500 10850
F 0 "#PWR034" H 5500 10600 50  0001 C CNN
F 1 "GND" H 5505 10677 50  0000 C CNN
F 2 "" H 5500 10850 50  0001 C CNN
F 3 "" H 5500 10850 50  0001 C CNN
	1    5500 10850
	1    0    0    -1  
$EndComp
Wire Wire Line
	6250 10800 6150 10800
Wire Wire Line
	6150 10800 6150 10750
Wire Wire Line
	6150 10800 6150 10850
Connection ~ 6150 10800
Wire Wire Line
	5850 10750 5850 10850
Wire Wire Line
	5500 10750 5500 10850
Wire Wire Line
	5200 10750 5200 10850
Wire Wire Line
	5550 10100 6250 10100
Connection ~ 5550 10100
Wire Wire Line
	5850 10500 5850 9700
Connection ~ 5850 10500
$Comp
L power:+3V3 #PWR035
U 1 1 5FF7B19D
P 5850 9700
F 0 "#PWR035" H 5850 9550 50  0001 C CNN
F 1 "+3V3" H 5865 9873 50  0000 C CNN
F 2 "" H 5850 9700 50  0001 C CNN
F 3 "" H 5850 9700 50  0001 C CNN
	1    5850 9700
	1    0    0    -1  
$EndComp
Text Label 13450 6050 0    50   ~ 0
~TXPDI
Text Label 13450 5950 0    50   ~ 0
~TXPDQ
Text Label 13450 4050 0    50   ~ 0
~TXEN
Text Label 13450 4150 0    50   ~ 0
~RXEN
Wire Wire Line
	13450 6050 13750 6050
Wire Wire Line
	13750 5950 13450 5950
Wire Wire Line
	13450 4050 13750 4050
Wire Wire Line
	13750 4150 13450 4150
NoConn ~ 13750 8850
NoConn ~ 13750 9050
NoConn ~ 13750 9150
$Comp
L Device:C_Small C7
U 1 1 601071D2
P 2800 9900
F 0 "C7" H 2892 9946 50  0000 L CNN
F 1 "2u2" H 2892 9855 50  0000 L CNN
F 2 "Capacitor_SMD:C_0805_2012Metric_Pad1.15x1.40mm_HandSolder" H 2800 9900 50  0001 C CNN
F 3 "~" H 2800 9900 50  0001 C CNN
	1    2800 9900
	1    0    0    -1  
$EndComp
$Comp
L power:GND #PWR019
U 1 1 6016AEB9
P 2800 10050
F 0 "#PWR019" H 2800 9800 50  0001 C CNN
F 1 "GND" H 2805 9877 50  0000 C CNN
F 2 "" H 2800 10050 50  0001 C CNN
F 3 "" H 2800 10050 50  0001 C CNN
	1    2800 10050
	1    0    0    -1  
$EndComp
Wire Wire Line
	2800 10050 2800 10000
Wire Wire Line
	2450 9750 2800 9750
Wire Wire Line
	2800 9750 2800 9800
Connection ~ 2450 9750
$Comp
L Device:C_Small C4
U 1 1 601A772C
P 1400 9900
F 0 "C4" H 1492 9946 50  0000 L CNN
F 1 "2u2" H 1492 9855 50  0000 L CNN
F 2 "Capacitor_SMD:C_0805_2012Metric_Pad1.15x1.40mm_HandSolder" H 1400 9900 50  0001 C CNN
F 3 "~" H 1400 9900 50  0001 C CNN
	1    1400 9900
	1    0    0    -1  
$EndComp
$Comp
L power:GND #PWR011
U 1 1 601A7E4F
P 1400 10050
F 0 "#PWR011" H 1400 9800 50  0001 C CNN
F 1 "GND" H 1405 9877 50  0000 C CNN
F 2 "" H 1400 10050 50  0001 C CNN
F 3 "" H 1400 10050 50  0001 C CNN
	1    1400 10050
	1    0    0    -1  
$EndComp
Wire Wire Line
	1400 10000 1400 10050
Wire Wire Line
	1400 9800 1400 9750
Wire Wire Line
	1400 9750 1050 9750
Connection ~ 1050 9750
$Comp
L Device:LED D1
U 1 1 60227873
P 10500 10200
F 0 "D1" V 10539 10082 50  0000 R CNN
F 1 "TX" V 10448 10082 50  0000 R CNN
F 2 "LED_THT:LED_D3.0mm" H 10500 10200 50  0001 C CNN
F 3 "~" H 10500 10200 50  0001 C CNN
	1    10500 10200
	0    -1   -1   0   
$EndComp
$Comp
L Device:LED D2
U 1 1 60227CDF
P 11000 10200
F 0 "D2" V 11039 10083 50  0000 R CNN
F 1 "RX" V 10948 10083 50  0000 R CNN
F 2 "LED_THT:LED_D3.0mm" H 11000 10200 50  0001 C CNN
F 3 "~" H 11000 10200 50  0001 C CNN
	1    11000 10200
	0    -1   -1   0   
$EndComp
$Comp
L Device:R R20
U 1 1 6022A4D5
P 10500 9800
F 0 "R20" H 10570 9846 50  0000 L CNN
F 1 "1k" H 10570 9755 50  0000 L CNN
F 2 "Resistor_SMD:R_0603_1608Metric_Pad1.05x0.95mm_HandSolder" V 10430 9800 50  0001 C CNN
F 3 "~" H 10500 9800 50  0001 C CNN
	1    10500 9800
	1    0    0    -1  
$EndComp
$Comp
L Device:R R22
U 1 1 6022A8C2
P 11000 9800
F 0 "R22" H 11070 9846 50  0000 L CNN
F 1 "1k" H 11070 9755 50  0000 L CNN
F 2 "Resistor_SMD:R_0603_1608Metric_Pad1.05x0.95mm_HandSolder" V 10930 9800 50  0001 C CNN
F 3 "~" H 11000 9800 50  0001 C CNN
	1    11000 9800
	1    0    0    -1  
$EndComp
Wire Wire Line
	11000 9950 11000 10050
Wire Wire Line
	10500 10050 10500 9950
Wire Wire Line
	10500 9650 10500 9600
Wire Wire Line
	11000 9600 11000 9650
NoConn ~ 13750 7550
NoConn ~ 13750 7650
NoConn ~ 13750 7850
NoConn ~ 13750 7950
NoConn ~ 13750 8050
NoConn ~ 13750 8250
NoConn ~ 13750 3850
NoConn ~ 13750 3950
NoConn ~ 13750 4250
NoConn ~ 13750 4350
NoConn ~ 13750 4450
NoConn ~ 13750 4550
NoConn ~ 13750 4650
NoConn ~ 13750 4750
NoConn ~ 13750 4850
NoConn ~ 13750 4950
NoConn ~ 13750 5050
NoConn ~ 13750 5150
NoConn ~ 13750 5250
NoConn ~ 13750 5350
NoConn ~ 13750 5550
NoConn ~ 13750 5650
NoConn ~ 13750 5750
NoConn ~ 13750 5850
NoConn ~ 13750 6550
NoConn ~ 850  6350
NoConn ~ 850  6450
NoConn ~ 13750 7250
$Comp
L power:+3V3 #PWR0101
U 1 1 608109AD
P 10500 9600
F 0 "#PWR0101" H 10500 9450 50  0001 C CNN
F 1 "+3V3" H 10515 9773 50  0000 C CNN
F 2 "" H 10500 9600 50  0001 C CNN
F 3 "" H 10500 9600 50  0001 C CNN
	1    10500 9600
	1    0    0    -1  
$EndComp
$Comp
L power:+3V3 #PWR0102
U 1 1 60810FBA
P 11000 9600
F 0 "#PWR0102" H 11000 9450 50  0001 C CNN
F 1 "+3V3" H 11015 9773 50  0000 C CNN
F 2 "" H 11000 9600 50  0001 C CNN
F 3 "" H 11000 9600 50  0001 C CNN
	1    11000 9600
	1    0    0    -1  
$EndComp
Text Label 10500 10550 1    50   ~ 0
~TXEN
Wire Wire Line
	10500 10350 10500 10550
Text Label 11000 10550 1    50   ~ 0
~RXEN
Wire Wire Line
	11000 10350 11000 10550
$Comp
L Device:C_Small C17
U 1 1 60931EA9
P 4800 1200
F 0 "C17" V 4571 1200 50  0000 C CNN
F 1 "2u2" V 4662 1200 50  0000 C CNN
F 2 "Capacitor_SMD:C_0805_2012Metric_Pad1.15x1.40mm_HandSolder" H 4800 1200 50  0001 C CNN
F 3 "~" H 4800 1200 50  0001 C CNN
	1    4800 1200
	0    1    1    0   
$EndComp
Wire Wire Line
	14550 9600 14550 9650
Wire Wire Line
	14550 9650 14650 9650
Wire Wire Line
	15150 9650 15150 9600
Connection ~ 14550 9650
Wire Wire Line
	14550 9650 14550 9700
Wire Wire Line
	15050 9600 15050 9650
Connection ~ 15050 9650
Wire Wire Line
	15050 9650 15150 9650
Wire Wire Line
	14950 9600 14950 9650
Connection ~ 14950 9650
Wire Wire Line
	14950 9650 15050 9650
Wire Wire Line
	14850 9600 14850 9650
Connection ~ 14850 9650
Wire Wire Line
	14850 9650 14950 9650
Wire Wire Line
	14750 9600 14750 9650
Connection ~ 14750 9650
Wire Wire Line
	14750 9650 14850 9650
Wire Wire Line
	14650 9600 14650 9650
Connection ~ 14650 9650
Wire Wire Line
	14650 9650 14750 9650
$Comp
L Connector:AudioJack3 J4
U 1 1 5ED5B6E0
P 6100 4150
F 0 "J4" H 5820 4083 50  0000 R CNN
F 1 "TXBB" H 5820 4174 50  0000 R CNN
F 2 "knightshrub-Connectors:Kycon-STX-3120-3BM" H 6100 4150 50  0001 C CNN
F 3 "~" H 6100 4150 50  0001 C CNN
	1    6100 4150
	1    0    0    1   
$EndComp
$Comp
L Connector:AudioJack3 J5
U 1 1 5ED7A199
P 7600 4150
F 0 "J5" H 7320 4083 50  0000 R CNN
F 1 "RXBB" H 7320 4174 50  0000 R CNN
F 2 "knightshrub-Connectors:Kycon-STX-3120-3BM" H 7600 4150 50  0001 C CNN
F 3 "~" H 7600 4150 50  0001 C CNN
	1    7600 4150
	-1   0    0    1   
$EndComp
$Comp
L Connector:AudioJack3 J3
U 1 1 5ED9831B
P 3150 1300
F 0 "J3" H 2871 1233 50  0000 R CNN
F 1 "MIC" H 2871 1324 50  0000 R CNN
F 2 "knightshrub-Connectors:Kycon-STX-3120-3BM" H 3150 1300 50  0001 C CNN
F 3 "~" H 3150 1300 50  0001 C CNN
	1    3150 1300
	1    0    0    1   
$EndComp
Text Label 3600 1300 2    50   ~ 0
PTT
Wire Wire Line
	3600 1300 3350 1300
$Comp
L Connector:AudioJack3 J6
U 1 1 5EDF1B26
P 9150 1100
F 0 "J6" H 8870 1033 50  0000 R CNN
F 1 "PHONES" H 8870 1124 50  0000 R CNN
F 2 "knightshrub-Connectors:Kycon-STX-3120-3BM" H 9150 1100 50  0001 C CNN
F 3 "~" H 9150 1100 50  0001 C CNN
	1    9150 1100
	-1   0    0    1   
$EndComp
Wire Wire Line
	8650 950  8650 1000
Wire Wire Line
	8900 1200 8950 1200
Wire Wire Line
	8900 1200 8900 1550
Wire Wire Line
	8350 1100 8950 1100
Connection ~ 8350 1100
Wire Wire Line
	8950 1000 8650 1000
Connection ~ 8650 1000
Wire Wire Line
	8650 1000 8650 1200
Wire Wire Line
	7450 2800 7450 950 
Wire Wire Line
	7450 950  8050 950 
Wire Wire Line
	7550 1100 7550 2900
Wire Wire Line
	7550 1100 8050 1100
Wire Wire Line
	3400 1450 3400 1400
Wire Wire Line
	3400 1400 3350 1400
$Comp
L power:GND #PWR037
U 1 1 5F047184
P 6350 4300
F 0 "#PWR037" H 6350 4050 50  0001 C CNN
F 1 "GND" H 6355 4127 50  0000 C CNN
F 2 "" H 6350 4300 50  0001 C CNN
F 3 "" H 6350 4300 50  0001 C CNN
	1    6350 4300
	1    0    0    -1  
$EndComp
Wire Wire Line
	6350 4300 6350 4250
Wire Wire Line
	6350 4250 6300 4250
Wire Wire Line
	7400 4050 7200 4050
Wire Wire Line
	7200 4150 7400 4150
Text Label 7200 4150 0    50   ~ 0
RXQ
Text Label 7200 4050 0    50   ~ 0
RXI
Wire Wire Line
	7350 4300 7350 4250
Wire Wire Line
	7350 4250 7400 4250
Text Label 13450 8150 0    50   ~ 0
PTT
Wire Wire Line
	13750 8150 13450 8150
$Comp
L tayloe-rescue:STM32F401RE-Nucleo-Morpho-knightshrub U7
U 1 2 5EE557C7
P 14850 6500
F 0 "U7" H 15250 9500 50  0000 C CNN
F 1 "STM32F401RE-Nucleo-Morpho" H 15800 9400 50  0000 C CNN
F 2 "knightshrub-Connectors:STM32-Nucleo64_Morpho-Connector" H 15150 8550 50  0001 C CNN
F 3 "" H 15150 8550 50  0001 C CNN
	1    14850 6500
	-1   0    0    -1  
$EndComp
NoConn ~ 13750 6150
NoConn ~ 13750 6250
NoConn ~ 13750 7150
NoConn ~ 13750 8550
NoConn ~ 13750 8650
NoConn ~ 13750 7350
NoConn ~ 13750 7450
NoConn ~ 13750 8350
NoConn ~ 13750 8450
$EndSCHEMATC
